digraph recognize {
    rankdir="LR";

    // States (2)
    node [shape = point ];     __Qi__ // Initial state
    node [shape=circle];       Q_0 [label=start];
    node [shape=doublecircle]; Q_1 [label=end];

    // Transitions
    __Qi__ -> Q_0; // Initial state arrow
    Q_0 -> Q_0 [label=a];
    Q_0 -> Q_1 [label=b];
}
